{
    "tracks": [
        {
            "name": "intro",
            "file": "fantom_quest_intro.wav",
            "once": true
        },
        {
            "name": "title",
            "file": "title.wav"
        },
        {
            "name": "fantom_win",
            "file": "fantom_win.wav",
            "once": true
        },
        {
            "name": "level1",
            "file": "level1.wav"
        },
        {
            "name": "level2",
            "file": "level2.wav"
        },
        {
            "name": "level3",
            "file": "level3.wav"
        },
        {
            "name": "level4",
            "file": "level4.wav"
        },
        {
            "name": "mirrors",
            "file": "mirrors.wav"
        },
        {
            "name": "secret_garden",
            "file": "secret_garden.wav"
        },
        {
            "name": "secret_room",
            "file": "secret_room.wav"
        },
        {
            "name": "fantom_dead",
            "file": "fantom_dead.wav"
        },
        {
            "name": "stairs",
            "file": "stairs.wav",
            "once": true
        },
        {
            "name": "witch",
            "file": "witch.wav"
        },
        {
            "name": "transformation",
            "file": "transformation.wav",
            "once": true
        },
        {
            "name": "generic",
            "file": "generic.wav"
        }
    ],
    "sfx": [
        {
            "name": "sucking_hole",
            "file": "sucking_hole_fx.wav",
            "once": true
        },
        {
            "name": "bat_fly",
            "file": "bat_fly.wav"
        },
        {
            "name": "metal_gate",
            "file": "metal_gate_open.wav",
            "once": true
        },
        {
            "name": "life_bonus_sfx",
            "file": "fantom_collect_life.wav",
            "once": true
        },
        {
            "name": "collectible_sfx",
            "file": "fantom_collect_object.wav",
            "once": true
        },
        {
            "name": "rat_squeak_crunch",
            "file": "rat_squeak_crunch.wav"
        },
        {
            "name": "crow_flap_cry",
            "file": "crow_flap_cry.wav"
        },
        {
            "name": "door_unlock_creak",
            "file": "door_unlock_creak.wav"
        }
    ]
}