{
    "name": "level3",
    "on_first_complete": {
        "destination_scene": "cinematic_win_level3"
    },
    "background": "map3",
    "soundtrack": "level3",
    "bots": [
        {
            "name": "bat",
            "collision_sfx": "bat_fly",
            "dammage": 0.02,
            "z_index": 4,
            "flying": true,
            "glue_factor": 0.3,
            "follow_factor": 1,
            "fps_factor": 2,
            "physics_config": {
                "mass": 2,
                "motor_power": 1,
                "solid": false
            },
            "pattern": {
                "type": "random",
                "options": {
                    "area": [
                        0,
                        0,
                        710,
                        710
                    ]
                }
            }
        },
        {
            "name": "bat_violet",
            "collision_sfx": "bat_fly",
            "z_index": 4,
            "flying": true,
            "physics_config": {
                "mass": 1.5,
                "motor_power": 1.5,
                "solid": false
            },
            "pattern": {
                "type": "random",
                "options": {
                    "area": [
                        0,
                        0,
                        710,
                        710
                    ]
                }
            }
        },
        {
            "name": "bat",
            "collision_sfx": "bat_fly",
            "dammage": 0.005,
            "z_index": 4,
            "flying": true,
            "glue_factor": 0.2,
            "follow_factor": 1,
            "fps_factor": 2,
            "physics_config": {
                "mass": 2,
                "motor_power": 1,
                "solid": false
            },
            "pattern": {
                "type": "random",
                "options": {
                    "area": [
                        0,
                        0,
                        710,
                        710
                    ]
                }
            }
        },
        {
            "name": "spider",
            "freeze_animation_if_stopped": true,
            "use_directional_animations": true,
            "init_animation": "down",
            "physics_config": {
                "mass": 4,
                "motor_power": 0.7,
                "velocity_transfer_priority": 1
            },
            "cta_message": "Parler",
            "interaction": {
                "require_collectible": {
                    "collectible_id": "emeraude",
                    "consume_collectible": true,
                    "if_not_object": {
                        "message": {
                            "text": "Tu as l'air un peu perdu mon pauvre petit.\nDis, tu n'aurais pas un petit cadeau pour\nmoi ?",
                            "image": "spider"
                        }
                    },
                    "if_object": {
                        "message": {
                            "text": "Quel joli caillou !\nExactement ce que je voulais. Merci !",
                            "image": "spider"
                        },
                        "modify": [
                            {
                                "interactable_id": "spider",
                                "modification_type": "pattern",
                                "complete": true,
                                "to": {
                                    "type": "go_to",
                                    "sequence": [
                                        [
                                            317,
                                            225
                                        ],
                                        [
                                            317,
                                            15
                                        ],
                                        [
                                            417,
                                            15
                                        ],
                                        [
                                            417,
                                            125
                                        ],
                                        [
                                            512,
                                            130
                                        ],
                                        [
                                            512,
                                            44
                                        ],
                                        [
                                            512,
                                            -200
                                        ]
                                    ]
                                }
                            }
                        ]
                    }
                }
            },
            "pattern": {
                "type": "loop",
                "options": {
                    "wait_frame_interval": [
                        30,
                        300
                    ],
                    "randomize_interval": true
                },
                "sequence": [
                    [
                        512,
                        44
                    ],
                    [
                        512,
                        130
                    ],
                    [
                        417,
                        125
                    ],
                    [
                        417,
                        15
                    ],
                    [
                        317,
                        15
                    ],
                    [
                        317,
                        225
                    ],
                    [
                        317,
                        15
                    ],
                    [
                        417,
                        15
                    ],
                    [
                        417,
                        125
                    ],
                    [
                        512,
                        130
                    ]
                ]
            }
        }
    ],
    "collectibles": [
        {
            "name": "emeraude",
            "feedback": {
                "message": "Une émeraude"
            },
            "hidden": true
        }
    ],
    "interactable_objects": [
        {
            "name": "message_paper",
            "physics_config": {
                "solid": false
            },
            "cta_message": "Lire",
            "position": [
                525,
                626
            ],
            "interaction": {
                "message": {
                    "text": "Perdu tu es ...\nUn allié tu dois trouver ..."
                }
            }
        },
        {
            "name": "chest_leather",
            "id": "chest_emeraude",
            "init_animation": "closed",
            "cta_message": "Ouvrir",
            "position": [
                695,
                420
            ],
            "interaction": {
                "modify": [
                    {
                        "interactable_id": "chest_emeraude",
                        "modification_type": "animation",
                        "to": "open"
                    }
                ],
                "give_collectible": {
                    "collectible_id": "emeraude",
                    "complete": true
                }
            }
        }
    ],
    "life_bonuses": [
        {
            "name": "flask",
            "value": 0.4,
            "position": [
                450,
                580
            ]
        },
        {
            "name": "flask",
            "value": 0.4,
            "position": [
                235,
                35
            ]
        }
    ],
    "decor_sprites": [
        {
            "name": "torche",
            "position": [
                -20,
                50
            ],
            "z_index": 2
        },
        {
            "name": "soldier",
            "position": [
                0,
                490
            ],
            "z_index": 2
        },
        {
            "name": "candles",
            "position": [
                692,
                300
            ],
            "z_index": 2
        }
    ],
    "spawns": [
        [
            12,
            120
        ],
        [
            540,
            -26
        ],
        [
            607,
            229
        ]
    ],
    "doors": [
        {
            "destination_scene": "level4",
            "destination_spawn": 0,
            "complete_level": true,
            "segment_points": [
                [
                    514,
                    20
                ],
                [
                    580,
                    20
                ]
            ]
        },
        {
            "destination_scene": "level2",
            "destination_spawn": 1,
            "segment_points": [
                [
                    -30,
                    210
                ],
                [
                    -30,
                    284
                ]
            ]
        },
        {
            "destination_scene": "secret_room",
            "destination_spawn": 0,
            "segment_points": [
                [
                    739,
                    311
                ],
                [
                    739,
                    407
                ]
            ]
        }
    ],
    "walls": [
        [
            [
                693,
                403
            ],
            [
                691,
                388
            ]
        ],
        [
            [
                691,
                388
            ],
            [
                790,
                388
            ]
        ],
        [
            [
                690,
                342
            ],
            [
                793,
                348
            ]
        ],
        [
            [
                1,
                210
            ],
            [
                75,
                210
            ]
        ],
        [
            [
                75,
                210
            ],
            [
                86,
                220
            ]
        ],
        [
            [
                86,
                220
            ],
            [
                88,
                596
            ]
        ],
        [
            [
                88,
                596
            ],
            [
                94,
                606
            ]
        ],
        [
            [
                94,
                606
            ],
            [
                106,
                607
            ]
        ],
        [
            [
                106,
                607
            ],
            [
                111,
                602
            ]
        ],
        [
            [
                111,
                602
            ],
            [
                115,
                451
            ]
        ],
        [
            [
                115,
                451
            ],
            [
                133,
                411
            ]
        ],
        [
            [
                133,
                411
            ],
            [
                201,
                408
            ]
        ],
        [
            [
                201,
                408
            ],
            [
                209,
                402
            ]
        ],
        [
            [
                211,
                401
            ],
            [
                211,
                93
            ]
        ],
        [
            [
                212,
                95
            ],
            [
                212,
                34
            ]
        ],
        [
            [
                212,
                34
            ],
            [
                241,
                18
            ]
        ],
        [
            [
                241,
                18
            ],
            [
                278,
                20
            ]
        ],
        [
            [
                278,
                20
            ],
            [
                288,
                52
            ]
        ],
        [
            [
                288,
                52
            ],
            [
                286,
                175
            ]
        ],
        [
            [
                286,
                175
            ],
            [
                294,
                213
            ]
        ],
        [
            [
                294,
                213
            ],
            [
                313,
                210
            ]
        ],
        [
            [
                313,
                210
            ],
            [
                313,
                67
            ]
        ],
        [
            [
                313,
                67
            ],
            [
                325,
                19
            ]
        ],
        [
            [
                325,
                19
            ],
            [
                338,
                14
            ]
        ],
        [
            [
                338,
                14
            ],
            [
                474,
                19
            ]
        ],
        [
            [
                474,
                19
            ],
            [
                491,
                44
            ]
        ],
        [
            [
                491,
                44
            ],
            [
                492,
                115
            ]
        ],
        [
            [
                492,
                115
            ],
            [
                507,
                119
            ]
        ],
        [
            [
                509,
                119
            ],
            [
                510,
                12
            ]
        ],
        [
            [
                584,
                8
            ],
            [
                583,
                171
            ]
        ],
        [
            [
                583,
                171
            ],
            [
                565,
                187
            ]
        ],
        [
            [
                565,
                187
            ],
            [
                453,
                193
            ]
        ],
        [
            [
                453,
                193
            ],
            [
                425,
                182
            ]
        ],
        [
            [
                425,
                182
            ],
            [
                418,
                175
            ]
        ],
        [
            [
                418,
                175
            ],
            [
                417,
                102
            ]
        ],
        [
            [
                417,
                102
            ],
            [
                410,
                91
            ]
        ],
        [
            [
                412,
                92
            ],
            [
                400,
                91
            ]
        ],
        [
            [
                400,
                91
            ],
            [
                390,
                103
            ]
        ],
        [
            [
                390,
                103
            ],
            [
                387,
                274
            ]
        ],
        [
            [
                387,
                274
            ],
            [
                380,
                286
            ]
        ],
        [
            [
                380,
                286
            ],
            [
                296,
                287
            ]
        ],
        [
            [
                296,
                287
            ],
            [
                287,
                301
            ]
        ],
        [
            [
                287,
                301
            ],
            [
                292,
                313
            ]
        ],
        [
            [
                292,
                313
            ],
            [
                404,
                313
            ]
        ],
        [
            [
                404,
                313
            ],
            [
                412,
                303
            ]
        ],
        [
            [
                412,
                303
            ],
            [
                417,
                242
            ]
        ],
        [
            [
                417,
                242
            ],
            [
                419,
                216
            ]
        ],
        [
            [
                419,
                216
            ],
            [
                538,
                208
            ]
        ],
        [
            [
                538,
                208
            ],
            [
                568,
                214
            ]
        ],
        [
            [
                568,
                214
            ],
            [
                587,
                232
            ]
        ],
        [
            [
                587,
                232
            ],
            [
                586,
                303
            ]
        ],
        [
            [
                586,
                303
            ],
            [
                593,
                308
            ]
        ],
        [
            [
                593,
                308
            ],
            [
                662,
                313
            ]
        ],
        [
            [
                662,
                313
            ],
            [
                685,
                326
            ]
        ],
        [
            [
                685,
                326
            ],
            [
                690,
                339
            ]
        ],
        [
            [
                693,
                404
            ],
            [
                784,
                418
            ]
        ],
        [
            [
                786,
                422
            ],
            [
                790,
                478
            ]
        ],
        [
            [
                790,
                478
            ],
            [
                759,
                491
            ]
        ],
        [
            [
                759,
                491
            ],
            [
                629,
                486
            ]
        ],
        [
            [
                629,
                486
            ],
            [
                616,
                478
            ]
        ],
        [
            [
                616,
                478
            ],
            [
                611,
                396
            ]
        ],
        [
            [
                611,
                396
            ],
            [
                520,
                384
            ]
        ],
        [
            [
                520,
                385
            ],
            [
                511,
                338
            ]
        ],
        [
            [
                511,
                338
            ],
            [
                516,
                295
            ]
        ],
        [
            [
                516,
                295
            ],
            [
                512,
                290
            ]
        ],
        [
            [
                512,
                290
            ],
            [
                495,
                290
            ]
        ],
        [
            [
                495,
                290
            ],
            [
                490,
                372
            ]
        ],
        [
            [
                490,
                372
            ],
            [
                477,
                385
            ]
        ],
        [
            [
                477,
                385
            ],
            [
                416,
                387
            ]
        ],
        [
            [
                416,
                387
            ],
            [
                397,
                396
            ]
        ],
        [
            [
                397,
                396
            ],
            [
                384,
                590
            ]
        ],
        [
            [
                384,
                590
            ],
            [
                392,
                612
            ]
        ],
        [
            [
                392,
                612
            ],
            [
                472,
                617
            ]
        ],
        [
            [
                472,
                617
            ],
            [
                491,
                644
            ]
        ],
        [
            [
                491,
                644
            ],
            [
                489,
                702
            ]
        ],
        [
            [
                489,
                702
            ],
            [
                500,
                719
            ]
        ],
        [
            [
                500,
                719
            ],
            [
                510,
                711
            ]
        ],
        [
            [
                510,
                711
            ],
            [
                513,
                633
            ]
        ],
        [
            [
                513,
                633
            ],
            [
                523,
                615
            ]
        ],
        [
            [
                523,
                615
            ],
            [
                608,
                611
            ]
        ],
        [
            [
                608,
                611
            ],
            [
                615,
                637
            ]
        ],
        [
            [
                615,
                637
            ],
            [
                608,
                662
            ]
        ],
        [
            [
                608,
                662
            ],
            [
                610,
                675
            ]
        ],
        [
            [
                610,
                675
            ],
            [
                593,
                692
            ]
        ],
        [
            [
                593,
                692
            ],
            [
                580,
                765
            ]
        ],
        [
            [
                580,
                765
            ],
            [
                563,
                788
            ]
        ],
        [
            [
                563,
                788
            ],
            [
                505,
                790
            ]
        ],
        [
            [
                505,
                790
            ],
            [
                423,
                787
            ]
        ],
        [
            [
                423,
                787
            ],
            [
                411,
                698
            ]
        ],
        [
            [
                411,
                698
            ],
            [
                339,
                689
            ]
        ],
        [
            [
                339,
                689
            ],
            [
                317,
                674
            ]
        ],
        [
            [
                317,
                674
            ],
            [
                314,
                402
            ]
        ],
        [
            [
                314,
                402
            ],
            [
                304,
                392
            ]
        ],
        [
            [
                304,
                392
            ],
            [
                291,
                400
            ]
        ],
        [
            [
                291,
                400
            ],
            [
                287,
                474
            ]
        ],
        [
            [
                287,
                474
            ],
            [
                274,
                489
            ]
        ],
        [
            [
                274,
                489
            ],
            [
                203,
                492
            ]
        ],
        [
            [
                203,
                492
            ],
            [
                195,
                513
            ]
        ],
        [
            [
                195,
                513
            ],
            [
                187,
                676
            ]
        ],
        [
            [
                187,
                676
            ],
            [
                176,
                689
            ]
        ],
        [
            [
                176,
                689
            ],
            [
                32,
                691
            ]
        ],
        [
            [
                32,
                691
            ],
            [
                14,
                677
            ]
        ],
        [
            [
                14,
                677
            ],
            [
                12,
                285
            ]
        ],
        [
            [
                12,
                285
            ],
            [
                1,
                285
            ]
        ]
    ]
}