{
    "name": "level4",
    "on_first_complete": {
        "destination_scene": "cinematic_win_level4"
    },
    "background": "map4",
    "soundtrack": "level4",
    "bots": [
        {
            "name": "skeleton",
            "cta_message": "Parler",
            "physics_config": {
                "movable": false
            },
            "spawn_if": {
                "character_has_not": "feather"
            },
            "use_action_strict_collider": true,
            "pattern": {
                "type": "stand",
                "sequence": [
                    [
                        100,
                        500
                    ]
                ]
            },
            "interaction": {
                "require_collectible": {
                    "collectible_id": "coins",
                    "consume_collectible": true,
                    "if_not_object": {
                        "message": {
                            "text": "Je n'arrive pas à dormir ...\nJe suis tourmenté ...",
                            "image": "skeleton"
                        }
                    },
                    "if_object": {
                        "message": {
                            "text": "Oh ! Des sous, c'est formidable !\nJe vais enfin pouvoir dormir tranquille !\nMerci cher ami, c'est bien aimable.\nTiens je te donne cette petite clé pour la\npeine. Tu trouveras bien quoi en faire.",
                            "image": "skeleton"
                        },
                        "give_collectible": {
                            "collectible_id": "closet_key",
                            "complete": true
                        }
                    }
                }
            }
        },
        {
            "name": "crow",
            "collision_sfx": "crow_flap_cry",
            "init_animation": "fly",
            "animation_move": "fly",
            "animation_stop": "land",
            "flying": true,
            "use_move_stop_animations": true,
            "z_index": 3,
            "glue_factor": 0.5,
            "follow_factor": 1,
            "fps_factor": 2,
            "magnet_factor": 0.05,
            "dammage": 0.04,
            "physics_config": {
                "mass": 2,
                "motor_power": 1,
                "solid": false
            },
            "pattern": {
                "type": "random_in_loop",
                "options": {
                    "wait_frame_interval": [
                        100,
                        300
                    ],
                    "randomize_interval": true
                },
                "sequence": [
                    [
                        648,
                        245
                    ],
                    [
                        85,
                        232
                    ],
                    [
                        330,
                        80
                    ],
                    [
                        597,
                        680
                    ],
                    [
                        151,
                        555
                    ]
                ]
            }
        }
    ],
    "collectibles": [
        {
            "name": "coins",
            "hidden": true,
            "feedback": {
                "message": "Des pièces d'or"
            }
        },
        {
            "name": "small_key",
            "id": "closet_key",
            "hidden": true,
            "feedback": {
                "message": "Une petit clé"
            }
        }
    ],
    "interactable_objects": [
        {
            "name": "chest_shiny",
            "id": "coins_chest",
            "init_animation": "closed",
            "cta_message": "Ouvrir",
            "position": [
                14,
                176
            ],
            "interaction": {
                "modify": [
                    {
                        "interactable_id": "coins_chest",
                        "modification_type": "animation",
                        "to": "open"
                    }
                ],
                "give_collectible": {
                    "collectible_id": "coins",
                    "complete": true
                }
            }
        },
        {
            "name": "closet",
            "id": "magic_closet",
            "init_animation": "closed",
            "cta_message": "Ouvrir",
            "position": [
                390,
                189
            ],
            "interaction": {
                "require_collectible": {
                    "collectible_id": "closet_key",
                    "consume_collectibe": true,
                    "if_not_object": {
                        "message": {
                            "text": "L'armoire est fermée à clé ..."
                        }
                    },
                    "if_object": {
                        "modify": [
                            {
                                "interactable_id": "magic_closet",
                                "modification_type": "animation",
                                "to": "open",
                                "complete": true
                            }
                        ]
                    }
                }
            }
        }
    ],
    "life_bonuses": [],
    "decor_sprites": [
        {
            "name": "bed1",
            "animation": "top",
            "z_index": 2,
            "position": [
                0,
                340
            ]
        },
        {
            "name": "bed1",
            "animation": "bottom",
            "position": [
                0,
                397
            ]
        },
        {
            "name": "cradle",
            "position": [
                200,
                663
            ],
            "z_index": 2
        },
        {
            "name": "bed2",
            "animation": "top",
            "position": [
                568,
                355
            ],
            "z_index": 2
        },
        {
            "name": "bed2",
            "animation": "bottom",
            "position": [
                568,
                416
            ]
        },
        {
            "name": "torche",
            "z_index": 2,
            "position": [
                -30,
                240
            ]
        },
        {
            "name": "torche",
            "z_index": 2,
            "animation": "left",
            "position": [
                710,
                220
            ]
        }
    ],
    "spawns": [
        [
            721,
            430
        ],
        [
            18,
            610
        ],
        [
            502,
            330
        ]
    ],
    "doors": [
        {
            "destination_scene": "stairs",
            "destination_spawn": 0,
            "complete_level": true,
            "segment_points": [
                [
                    0,
                    715
                ],
                [
                    0,
                    790
                ]
            ]
        },
        {
            "destination_scene": "level5",
            "destination_spawn": 0,
            "segment_points": [
                [
                    539,
                    309
                ],
                [
                    539,
                    383
                ]
            ]
        },
        {
            "destination_scene": "level3",
            "destination_spawn": 1,
            "segment_points": [
                [
                    830,
                    513
                ],
                [
                    830,
                    597
                ]
            ]
        }
    ],
    "walls": [
        [
            [
                796,
                596
            ],
            [
                796,
                596
            ]
        ],
        [
            [
                782,
                599
            ],
            [
                782,
                599
            ]
        ],
        [
            [
                796,
                595
            ],
            [
                782,
                599
            ]
        ],
        [
            [
                782,
                599
            ],
            [
                779,
                767
            ]
        ],
        [
            [
                779,
                767
            ],
            [
                767,
                785
            ]
        ],
        [
            [
                767,
                785
            ],
            [
                646,
                789
            ]
        ],
        [
            [
                646,
                789
            ],
            [
                619,
                774
            ]
        ],
        [
            [
                619,
                774
            ],
            [
                616,
                704
            ]
        ],
        [
            [
                616,
                704
            ],
            [
                608,
                691
            ]
        ],
        [
            [
                608,
                691
            ],
            [
                590,
                688
            ]
        ],
        [
            [
                590,
                688
            ],
            [
                587,
                707
            ]
        ],
        [
            [
                587,
                707
            ],
            [
                585,
                770
            ]
        ],
        [
            [
                585,
                770
            ],
            [
                568,
                785
            ]
        ],
        [
            [
                568,
                785
            ],
            [
                449,
                788
            ]
        ],
        [
            [
                449,
                788
            ],
            [
                412,
                770
            ]
        ],
        [
            [
                412,
                770
            ],
            [
                407,
                552
            ]
        ],
        [
            [
                407,
                552
            ],
            [
                427,
                513
            ]
        ],
        [
            [
                427,
                513
            ],
            [
                496,
                508
            ]
        ],
        [
            [
                496,
                508
            ],
            [
                511,
                499
            ]
        ],
        [
            [
                511,
                499
            ],
            [
                510,
                489
            ]
        ],
        [
            [
                510,
                491
            ],
            [
                503,
                487
            ]
        ],
        [
            [
                503,
                487
            ],
            [
                346,
                484
            ]
        ],
        [
            [
                346,
                484
            ],
            [
                317,
                470
            ]
        ],
        [
            [
                317,
                470
            ],
            [
                314,
                298
            ]
        ],
        [
            [
                314,
                298
            ],
            [
                304,
                292
            ]
        ],
        [
            [
                304,
                292
            ],
            [
                294,
                293
            ]
        ],
        [
            [
                294,
                293
            ],
            [
                289,
                308
            ]
        ],
        [
            [
                289,
                308
            ],
            [
                288,
                513
            ]
        ],
        [
            [
                288,
                513
            ],
            [
                319,
                526
            ]
        ],
        [
            [
                319,
                526
            ],
            [
                377,
                523
            ]
        ],
        [
            [
                379,
                524
            ],
            [
                387,
                554
            ]
        ],
        [
            [
                383,
                677
            ],
            [
                383,
                677
            ]
        ],
        [
            [
                388,
                556
            ],
            [
                382,
                679
            ]
        ],
        [
            [
                371,
                691
            ],
            [
                371,
                691
            ]
        ],
        [
            [
                383,
                679
            ],
            [
                371,
                692
            ]
        ],
        [
            [
                372,
                691
            ],
            [
                213,
                694
            ]
        ],
        [
            [
                213,
                694
            ],
            [
                193,
                702
            ]
        ],
        [
            [
                193,
                702
            ],
            [
                186,
                781
            ]
        ],
        [
            [
                186,
                781
            ],
            [
                167,
                785
            ]
        ],
        [
            [
                6,
                792
            ],
            [
                2,
                790
            ]
        ],
        [
            [
                165,
                786
            ],
            [
                8,
                794
            ]
        ],
        [
            [
                5,
                713
            ],
            [
                111,
                715
            ]
        ],
        [
            [
                111,
                715
            ],
            [
                117,
                704
            ]
        ],
        [
            [
                117,
                704
            ],
            [
                114,
                694
            ]
        ],
        [
            [
                114,
                694
            ],
            [
                32,
                683
            ]
        ],
        [
            [
                32,
                683
            ],
            [
                17,
                660
            ]
        ],
        [
            [
                17,
                660
            ],
            [
                17,
                564
            ]
        ],
        [
            [
                17,
                564
            ],
            [
                29,
                526
            ]
        ],
        [
            [
                29,
                526
            ],
            [
                46,
                516
            ]
        ],
        [
            [
                46,
                516
            ],
            [
                159,
                512
            ]
        ],
        [
            [
                159,
                512
            ],
            [
                186,
                526
            ]
        ],
        [
            [
                186,
                526
            ],
            [
                193,
                609
            ]
        ],
        [
            [
                193,
                609
            ],
            [
                206,
                614
            ]
        ],
        [
            [
                206,
                614
            ],
            [
                316,
                613
            ]
        ],
        [
            [
                316,
                613
            ],
            [
                320,
                600
            ]
        ],
        [
            [
                320,
                600
            ],
            [
                315,
                590
            ]
        ],
        [
            [
                315,
                590
            ],
            [
                228,
                590
            ]
        ],
        [
            [
                228,
                590
            ],
            [
                217,
                580
            ]
        ],
        [
            [
                217,
                580
            ],
            [
                214,
                314
            ]
        ],
        [
            [
                214,
                314
            ],
            [
                207,
                297
            ]
        ],
        [
            [
                207,
                297
            ],
            [
                193,
                297
            ]
        ],
        [
            [
                193,
                297
            ],
            [
                186,
                373
            ]
        ],
        [
            [
                186,
                373
            ],
            [
                173,
                387
            ]
        ],
        [
            [
                173,
                387
            ],
            [
                38,
                389
            ]
        ],
        [
            [
                38,
                389
            ],
            [
                14,
                372
            ]
        ],
        [
            [
                14,
                372
            ],
            [
                10,
                151
            ]
        ],
        [
            [
                10,
                151
            ],
            [
                16,
                29
            ]
        ],
        [
            [
                16,
                29
            ],
            [
                36,
                16
            ]
        ],
        [
            [
                36,
                16
            ],
            [
                70,
                18
            ]
        ],
        [
            [
                70,
                18
            ],
            [
                85,
                32
            ]
        ],
        [
            [
                85,
                32
            ],
            [
                85,
                238
            ]
        ],
        [
            [
                85,
                238
            ],
            [
                86,
                262
            ]
        ],
        [
            [
                86,
                262
            ],
            [
                93,
                307
            ]
        ],
        [
            [
                93,
                307
            ],
            [
                107,
                314
            ]
        ],
        [
            [
                107,
                314
            ],
            [
                114,
                308
            ]
        ],
        [
            [
                114,
                308
            ],
            [
                118,
                254
            ]
        ],
        [
            [
                118,
                254
            ],
            [
                125,
                234
            ]
        ],
        [
            [
                125,
                234
            ],
            [
                138,
                220
            ]
        ],
        [
            [
                138,
                220
            ],
            [
                301,
                215
            ]
        ],
        [
            [
                301,
                215
            ],
            [
                310,
                198
            ]
        ],
        [
            [
                310,
                198
            ],
            [
                307,
                184
            ]
        ],
        [
            [
                307,
                184
            ],
            [
                241,
                180
            ]
        ],
        [
            [
                241,
                180
            ],
            [
                226,
                173
            ]
        ],
        [
            [
                226,
                173
            ],
            [
                221,
                153
            ]
        ],
        [
            [
                221,
                153
            ],
            [
                222,
                36
            ]
        ],
        [
            [
                222,
                36
            ],
            [
                231,
                18
            ]
        ],
        [
            [
                231,
                18
            ],
            [
                245,
                15
            ]
        ],
        [
            [
                245,
                15
            ],
            [
                459,
                16
            ]
        ],
        [
            [
                459,
                16
            ],
            [
                482,
                29
            ]
        ],
        [
            [
                482,
                29
            ],
            [
                489,
                56
            ]
        ],
        [
            [
                489,
                56
            ],
            [
                490,
                100
            ]
        ],
        [
            [
                490,
                100
            ],
            [
                499,
                117
            ]
        ],
        [
            [
                499,
                117
            ],
            [
                506,
                116
            ]
        ],
        [
            [
                506,
                116
            ],
            [
                513,
                79
            ]
        ],
        [
            [
                513,
                79
            ],
            [
                513,
                54
            ]
        ],
        [
            [
                513,
                54
            ],
            [
                523,
                22
            ]
        ],
        [
            [
                524,
                23
            ],
            [
                562,
                10
            ]
        ],
        [
            [
                562,
                10
            ],
            [
                666,
                16
            ]
        ],
        [
            [
                666,
                16
            ],
            [
                684,
                30
            ]
        ],
        [
            [
                684,
                30
            ],
            [
                688,
                101
            ]
        ],
        [
            [
                688,
                103
            ],
            [
                693,
                113
            ]
        ],
        [
            [
                762,
                117
            ],
            [
                696,
                115
            ]
        ],
        [
            [
                764,
                118
            ],
            [
                779,
                128
            ]
        ],
        [
            [
                779,
                128
            ],
            [
                783,
                372
            ]
        ],
        [
            [
                783,
                372
            ],
            [
                761,
                383
            ]
        ],
        [
            [
                761,
                383
            ],
            [
                605,
                384
            ]
        ],
        [
            [
                602,
                312
            ],
            [
                702,
                309
            ]
        ],
        [
            [
                702,
                309
            ],
            [
                711,
                297
            ]
        ],
        [
            [
                711,
                297
            ],
            [
                710,
                193
            ]
        ],
        [
            [
                710,
                193
            ],
            [
                633,
                186
            ]
        ],
        [
            [
                633,
                186
            ],
            [
                620,
                167
            ]
        ],
        [
            [
                620,
                167
            ],
            [
                613,
                97
            ]
        ],
        [
            [
                613,
                97
            ],
            [
                588,
                97
            ]
        ],
        [
            [
                588,
                97
            ],
            [
                581,
                174
            ]
        ],
        [
            [
                581,
                174
            ],
            [
                558,
                189
            ]
        ],
        [
            [
                558,
                189
            ],
            [
                443,
                188
            ]
        ],
        [
            [
                443,
                188
            ],
            [
                421,
                179
            ]
        ],
        [
            [
                421,
                179
            ],
            [
                412,
                102
            ]
        ],
        [
            [
                412,
                102
            ],
            [
                387,
                96
            ]
        ],
        [
            [
                387,
                96
            ],
            [
                388,
                393
            ]
        ],
        [
            [
                388,
                393
            ],
            [
                401,
                404
            ]
        ],
        [
            [
                401,
                404
            ],
            [
                447,
                412
            ]
        ],
        [
            [
                447,
                412
            ],
            [
                556,
                412
            ]
        ],
        [
            [
                556,
                412
            ],
            [
                579,
                425
            ]
        ],
        [
            [
                579,
                425
            ],
            [
                586,
                543
            ]
        ],
        [
            [
                586,
                543
            ],
            [
                574,
                583
            ]
        ],
        [
            [
                574,
                583
            ],
            [
                493,
                591
            ]
        ],
        [
            [
                493,
                591
            ],
            [
                485,
                609
            ]
        ],
        [
            [
                485,
                609
            ],
            [
                490,
                705
            ]
        ],
        [
            [
                490,
                705
            ],
            [
                506,
                709
            ]
        ],
        [
            [
                506,
                709
            ],
            [
                514,
                700
            ]
        ],
        [
            [
                514,
                700
            ],
            [
                522,
                625
            ]
        ],
        [
            [
                522,
                625
            ],
            [
                538,
                613
            ]
        ],
        [
            [
                538,
                613
            ],
            [
                601,
                610
            ]
        ],
        [
            [
                601,
                610
            ],
            [
                677,
                616
            ]
        ],
        [
            [
                677,
                616
            ],
            [
                692,
                642
            ]
        ],
        [
            [
                692,
                642
            ],
            [
                691,
                693
            ]
        ],
        [
            [
                691,
                693
            ],
            [
                700,
                701
            ]
        ],
        [
            [
                700,
                701
            ],
            [
                709,
                696
            ]
        ],
        [
            [
                709,
                696
            ],
            [
                712,
                547
            ]
        ],
        [
            [
                712,
                547
            ],
            [
                716,
                526
            ]
        ],
        [
            [
                716,
                526
            ],
            [
                738,
                518
            ]
        ],
        [
            [
                738,
                518
            ],
            [
                794,
                515
            ]
        ],
        [
            [
                289,
                112
            ],
            [
                315,
                112
            ]
        ],
        [
            [
                315,
                112
            ],
            [
                317,
                92
            ]
        ],
        [
            [
                317,
                92
            ],
            [
                305,
                88
            ]
        ],
        [
            [
                305,
                88
            ],
            [
                291,
                91
            ]
        ],
        [
            [
                291,
                91
            ],
            [
                287,
                112
            ]
        ]
    ]
}