{
    "name": "cinematic_intro",
    "type": "cinematic",
    "background": "cinematic_intro",
    "soundtrack": "intro",
    "cinematic_destination_scene": "level1",
    "could_be_replayed": true,
    "game_starting_point": true,
    "disable_save": true
}