{
    "name": "cinematic_win_level1",
    "type": "cinematic",
    "background": "cinematic_win_level1",
    "soundtrack": "fantom_win",
    "cinematic_duration": 3,
    "cinematic_destination_scene": "level2"
}